<?xml version="1.0" encoding="UTF-8" standalone="no"?>
<svg
   width="41cm"
   height="27cm"
   viewBox="0 0 1549.6063 1020.4724"
   version="1.1"
   id="svg100"
   sodipodi:docname="table decoupe(x1).svg"
   inkscape:version="1.1.1 (3bf5ae0d25, 2021-09-20)"
   xmlns:inkscape="http://www.inkscape.org/namespaces/inkscape"
   xmlns:sodipodi="http://sodipodi.sourceforge.net/DTD/sodipodi-0.dtd"
   xmlns="http://www.w3.org/2000/svg"
   xmlns:svg="http://www.w3.org/2000/svg"
   xmlns:rdf="http://www.w3.org/1999/02/22-rdf-syntax-ns#"
   xmlns:cc="http://creativecommons.org/ns#"
   xmlns:dc="http://purl.org/dc/elements/1.1/">
  <defs
     id="defs104" />
  <sodipodi:namedview
     id="namedview102"
     pagecolor="#ffffff"
     bordercolor="#666666"
     borderopacity="1.0"
     inkscape:pageshadow="2"
     inkscape:pageopacity="0.0"
     inkscape:pagecheckerboard="0"
     showgrid="false"
     units="cm"
     inkscape:zoom="0.33589188"
     inkscape:cx="1070.2849"
     inkscape:cy="480.80948"
     inkscape:window-width="1366"
     inkscape:window-height="705"
     inkscape:window-x="-8"
     inkscape:window-y="-8"
     inkscape:window-maximized="1"
     inkscape:current-layer="svg100"
     inkscape:document-units="cm" />
  <title
     id="title2">Produce by Acme CAD Converter</title>
  <desc
     id="desc4">Produce by Acme CAD Converter</desc>
  <polyline
     points="297.1,217.93 531.7,217.93"
     style="fill:none;stroke:#000000;stroke-width:0.5"
     id="polyline6"
     transform="matrix(6.5222577,0,0,6.5222577,-1932.2441,-1419.7366)" />
  <polyline
     points="531.7,373.89 297.1,373.89"
     style="fill:none;stroke:#000000;stroke-width:0.5"
     id="polyline8"
     transform="matrix(6.5222577,0,0,6.5222577,-1932.2441,-1419.7366)" />
  <polyline
     points="303.68,371.91 409.95,371.91"
     style="fill:none;stroke:#ff0000;stroke-width:0.5"
     id="polyline10"
     transform="matrix(6.5222577,0,0,6.5222577,-1932.2441,-1419.7366)" />
  <polyline
     points="409.95,219.42 303.68,219.42"
     style="fill:none;stroke:#ff0000;stroke-width:0.5"
     id="polyline12"
     transform="matrix(6.5222577,0,0,6.5222577,-1932.2441,-1419.7366)" />
  <polyline
     points="299.98,222.02 299.98,369.31"
     style="fill:none;stroke:#ff0000;stroke-width:0.5"
     id="polyline14"
     transform="matrix(6.5222577,0,0,6.5222577,-1932.2441,-1419.7366)" />
  <polyline
     points="303.68,371.91 303.68,369.31"
     style="fill:none;stroke:#ff0000;stroke-width:0.5"
     id="polyline16"
     transform="matrix(6.5222577,0,0,6.5222577,-1932.2441,-1419.7366)" />
  <polyline
     points="303.68,369.31 299.98,369.31"
     style="fill:none;stroke:#ff0000;stroke-width:0.5"
     id="polyline18"
     transform="matrix(6.5222577,0,0,6.5222577,-1932.2441,-1419.7366)" />
  <polyline
     points="303.68,219.42 303.68,222.02"
     style="fill:none;stroke:#ff0000;stroke-width:0.5"
     id="polyline20"
     transform="matrix(6.5222577,0,0,6.5222577,-1932.2441,-1419.7366)" />
  <polyline
     points="303.68,222.02 299.98,222.02"
     style="fill:none;stroke:#ff0000;stroke-width:0.5"
     id="polyline22"
     transform="matrix(6.5222577,0,0,6.5222577,-1932.2441,-1419.7366)" />
  <polyline
     points="413.66,222.02 413.66,369.31"
     style="fill:none;stroke:#ff0000;stroke-width:0.5"
     id="polyline24"
     transform="matrix(6.5222577,0,0,6.5222577,-1932.2441,-1419.7366)" />
  <polyline
     points="409.95,371.91 409.95,369.31"
     style="fill:none;stroke:#ff0000;stroke-width:0.5"
     id="polyline26"
     transform="matrix(6.5222577,0,0,6.5222577,-1932.2441,-1419.7366)" />
  <polyline
     points="409.95,369.31 413.66,369.31"
     style="fill:none;stroke:#ff0000;stroke-width:0.5"
     id="polyline28"
     transform="matrix(6.5222577,0,0,6.5222577,-1932.2441,-1419.7366)" />
  <polyline
     points="409.95,219.42 409.95,222.02"
     style="fill:none;stroke:#ff0000;stroke-width:0.5"
     id="polyline30"
     transform="matrix(6.5222577,0,0,6.5222577,-1932.2441,-1419.7366)" />
  <polyline
     points="409.95,222.02 413.66,222.02"
     style="fill:none;stroke:#ff0000;stroke-width:0.5"
     id="polyline32"
     transform="matrix(6.5222577,0,0,6.5222577,-1932.2441,-1419.7366)" />
  <polyline
     points="416.76,372.16 471.87,372.16"
     style="fill:none;stroke:#ff0000;stroke-width:0.5"
     id="polyline34"
     transform="matrix(6.5222577,0,0,6.5222577,-1932.2441,-1419.7366)" />
  <polyline
     points="416.76,369.56 416.76,222.27"
     style="fill:none;stroke:#ff0000;stroke-width:0.5"
     id="polyline36"
     transform="matrix(6.5222577,0,0,6.5222577,-1932.2441,-1419.7366)" />
  <polyline
     points="416.76,219.67 471.87,219.67"
     style="fill:none;stroke:#ff0000;stroke-width:0.5"
     id="polyline38"
     transform="matrix(6.5222577,0,0,6.5222577,-1932.2441,-1419.7366)" />
  <polyline
     points="471.87,219.67 471.87,372.16"
     style="fill:none;stroke:#ff0000;stroke-width:0.5"
     id="polyline40"
     transform="matrix(6.5222577,0,0,6.5222577,-1932.2441,-1419.7366)" />
  <polyline
     points="416.76,372.16 416.07,372.16"
     style="fill:none;stroke:#ff0000;stroke-width:0.5"
     id="polyline42"
     transform="matrix(6.5222577,0,0,6.5222577,-1932.2441,-1419.7366)" />
  <polyline
     points="414.69,372.16 414.69,373.89"
     style="fill:none;stroke:#ff0000;stroke-width:0.5"
     id="polyline44"
     transform="matrix(6.5222577,0,0,6.5222577,-1932.2441,-1419.7366)" />
  <polyline
     points="414.69,373.89 416.07,373.89"
     style="fill:none;stroke:#ff0000;stroke-width:0.5"
     id="polyline46"
     transform="matrix(6.5222577,0,0,6.5222577,-1932.2441,-1419.7366)" />
  <polyline
     points="416.07,373.89 416.07,372.16"
     style="fill:none;stroke:#ff0000;stroke-width:0.5"
     id="polyline48"
     transform="matrix(6.5222577,0,0,6.5222577,-1932.2441,-1419.7366)" />
  <polyline
     points="414.69,372.16 414.69,369.56"
     style="fill:none;stroke:#ff0000;stroke-width:0.5"
     id="polyline50"
     transform="matrix(6.5222577,0,0,6.5222577,-1932.2441,-1419.7366)" />
  <polyline
     points="414.69,369.56 416.76,369.56"
     style="fill:none;stroke:#ff0000;stroke-width:0.5"
     id="polyline52"
     transform="matrix(6.5222577,0,0,6.5222577,-1932.2441,-1419.7366)" />
  <polyline
     points="416.76,219.67 416.07,219.67"
     style="fill:none;stroke:#ff0000;stroke-width:0.5"
     id="polyline54"
     transform="matrix(6.5222577,0,0,6.5222577,-1932.2441,-1419.7366)" />
  <polyline
     points="414.69,219.67 414.69,217.93"
     style="fill:none;stroke:#ff0000;stroke-width:0.5"
     id="polyline56"
     transform="matrix(6.5222577,0,0,6.5222577,-1932.2441,-1419.7366)" />
  <polyline
     points="414.69,217.93 416.07,217.93"
     style="fill:none;stroke:#ff0000;stroke-width:0.5"
     id="polyline58"
     transform="matrix(6.5222577,0,0,6.5222577,-1932.2441,-1419.7366)" />
  <polyline
     points="416.07,217.93 416.07,219.67"
     style="fill:none;stroke:#ff0000;stroke-width:0.5"
     id="polyline60"
     transform="matrix(6.5222577,0,0,6.5222577,-1932.2441,-1419.7366)" />
  <polyline
     points="414.69,219.67 414.69,222.27"
     style="fill:none;stroke:#ff0000;stroke-width:0.5"
     id="polyline62"
     transform="matrix(6.5222577,0,0,6.5222577,-1932.2441,-1419.7366)" />
  <polyline
     points="414.69,222.27 416.76,222.27"
     style="fill:none;stroke:#ff0000;stroke-width:0.5"
     id="polyline64"
     transform="matrix(6.5222577,0,0,6.5222577,-1932.2441,-1419.7366)" />
  <polyline
     points="475.17,372.16 530.28,372.16"
     style="fill:none;stroke:#ff0000;stroke-width:0.5"
     id="polyline66"
     transform="matrix(6.5222577,0,0,6.5222577,-1932.2441,-1419.7366)" />
  <polyline
     points="475.17,369.56 475.17,222.27"
     style="fill:none;stroke:#ff0000;stroke-width:0.5"
     id="polyline68"
     transform="matrix(6.5222577,0,0,6.5222577,-1932.2441,-1419.7366)" />
  <polyline
     points="475.17,219.67 530.28,219.67"
     style="fill:none;stroke:#ff0000;stroke-width:0.5"
     id="polyline70"
     transform="matrix(6.5222577,0,0,6.5222577,-1932.2441,-1419.7366)" />
  <polyline
     points="530.28,219.67 530.28,372.16"
     style="fill:none;stroke:#ff0000;stroke-width:0.5"
     id="polyline72"
     transform="matrix(6.5222577,0,0,6.5222577,-1932.2441,-1419.7366)" />
  <polyline
     points="475.17,372.16 474.48,372.16"
     style="fill:none;stroke:#ff0000;stroke-width:0.5"
     id="polyline74"
     transform="matrix(6.5222577,0,0,6.5222577,-1932.2441,-1419.7366)" />
  <polyline
     points="473.1,372.16 473.1,373.89"
     style="fill:none;stroke:#ff0000;stroke-width:0.5"
     id="polyline76"
     transform="matrix(6.5222577,0,0,6.5222577,-1932.2441,-1419.7366)" />
  <polyline
     points="473.1,373.89 474.48,373.89"
     style="fill:none;stroke:#ff0000;stroke-width:0.5"
     id="polyline78"
     transform="matrix(6.5222577,0,0,6.5222577,-1932.2441,-1419.7366)" />
  <polyline
     points="474.48,373.89 474.48,372.16"
     style="fill:none;stroke:#ff0000;stroke-width:0.5"
     id="polyline80"
     transform="matrix(6.5222577,0,0,6.5222577,-1932.2441,-1419.7366)" />
  <polyline
     points="473.1,372.16 473.1,369.56"
     style="fill:none;stroke:#ff0000;stroke-width:0.5"
     id="polyline82"
     transform="matrix(6.5222577,0,0,6.5222577,-1932.2441,-1419.7366)" />
  <polyline
     points="473.1,369.56 475.17,369.56"
     style="fill:none;stroke:#ff0000;stroke-width:0.5"
     id="polyline84"
     transform="matrix(6.5222577,0,0,6.5222577,-1932.2441,-1419.7366)" />
  <polyline
     points="475.17,219.67 474.48,219.67"
     style="fill:none;stroke:#ff0000;stroke-width:0.5"
     id="polyline86"
     transform="matrix(6.5222577,0,0,6.5222577,-1932.2441,-1419.7366)" />
  <polyline
     points="473.1,219.67 473.1,217.93"
     style="fill:none;stroke:#ff0000;stroke-width:0.5"
     id="polyline88"
     transform="matrix(6.5222577,0,0,6.5222577,-1932.2441,-1419.7366)" />
  <polyline
     points="473.1,217.93 474.48,217.93"
     style="fill:none;stroke:#ff0000;stroke-width:0.5"
     id="polyline90"
     transform="matrix(6.5222577,0,0,6.5222577,-1932.2441,-1419.7366)" />
  <polyline
     points="474.48,217.93 474.48,219.67"
     style="fill:none;stroke:#ff0000;stroke-width:0.5"
     id="polyline92"
     transform="matrix(6.5222577,0,0,6.5222577,-1932.2441,-1419.7366)" />
  <polyline
     points="473.1,219.67 473.1,222.27"
     style="fill:none;stroke:#ff0000;stroke-width:0.5"
     id="polyline94"
     transform="matrix(6.5222577,0,0,6.5222577,-1932.2441,-1419.7366)" />
  <polyline
     points="473.1,222.27 475.17,222.27"
     style="fill:none;stroke:#ff0000;stroke-width:0.5"
     id="polyline96"
     transform="matrix(6.5222577,0,0,6.5222577,-1932.2441,-1419.7366)" />
  <polyline
     points="297.07,373.89 297.07,217.93 531.74,217.93 531.74,373.89 297.07,373.89"
     style="fill:none;stroke:#000000;stroke-width:0.5"
     id="polyline98"
     transform="matrix(6.5222577,0,0,6.5222577,-1932.2441,-1419.7366)" />
  <metadata
     id="metadata106">
    <rdf:RDF>
      <cc:Work
         rdf:about="">
        <dc:title>Produce by Acme CAD Converter</dc:title>
      </cc:Work>
    </rdf:RDF>
  </metadata>
</svg>
