<?xml version="1.0" encoding="UTF-8"?>
<svg xmlns="http://www.w3.org/2000/svg" width="841.000" height="595.000" viewBox="0.0 0.0 841.000 595.000" version="1.1">
  <title>Produce by Acme CAD Converter</title>
  <desc>Produce by Acme CAD Converter</desc>
<path d="M202.26 5.96L56.46 5.96M56.46 5.96L56.46 151.76M56.46 151.76L255.59 251.32M255.59 251.32L255.59 251.32M255.59 251.32L252.91 257.12M252.91 257.12L250.59 263.08M250.59 263.08L248.65 269.16M248.65 269.16L247.08 275.36M247.08 275.36L245.9 281.64M245.9 281.64L245.12 287.98M245.12 287.98L244.72 294.36M244.72 294.36L244.72 300.75M244.72 300.75L245.12 307.13M245.12 307.13L245.9 313.47M245.9 313.47L247.08 319.75M247.08 319.75L248.65 325.95M248.65 325.95L250.59 332.03M250.59 332.03L252.91 337.99M252.91 337.99L255.59 343.79M255.59 343.79L56.46 443.35M56.46 443.35L56.46 589.15M56.46 589.15L202.26 589.15M202.26 589.15L301.82 390.03M301.82 390.03L301.82 390.03M301.82 390.03L307.62 392.71M307.62 392.71L313.58 395.02M313.58 395.02L319.67 396.97M319.67 396.97L325.86 398.53M325.86 398.53L332.14 399.71M332.14 399.71L338.48 400.5M338.48 400.5L344.86 400.89M344.86 400.89L351.25 400.89M351.25 400.89L357.63 400.5M357.63 400.5L363.97 399.71M363.97 399.71L370.25 398.53M370.25 398.53L376.45 396.97M376.45 396.97L382.54 395.02M382.54 395.02L388.49 392.71M388.49 392.71L394.29 390.03M394.29 390.03L493.86 589.15M493.86 589.15L639.66 589.15M639.66 589.15L639.66 443.35M639.66 443.35L440.53 343.79M440.53 343.79L440.53 343.79M440.53 343.79L443.21 337.99M443.21 337.99L445.52 332.03M445.52 332.03L447.47 325.95M447.47 325.95L449.03 319.75M449.03 319.75L450.21 313.47M450.21 313.47L451 307.13M451 307.13L451.39 300.75M451.39 300.75L451.39 294.36M451.39 294.36L451 287.98M451 287.98L450.21 281.64M450.21 281.64L449.03 275.36M449.03 275.36L447.47 269.16M447.47 269.16L445.52 263.08M445.52 263.08L443.21 257.12M443.21 257.12L440.53 251.32M440.53 251.32L639.66 151.76M639.66 151.76L639.66 5.96M639.66 5.96L493.86 5.96M493.86 5.96L394.29 205.08M394.29 205.08L394.29 205.08M394.29 205.08L388.49 202.4M388.49 202.4L382.54 200.09M382.54 200.09L376.45 198.14M376.45 198.14L370.25 196.58M370.25 196.58L363.97 195.4M363.97 195.4L357.63 194.61M357.63 194.61L351.25 194.22M351.25 194.22L344.86 194.22M344.86 194.22L338.48 194.61M338.48 194.61L332.14 195.4M332.14 195.4L325.86 196.58M325.86 196.58L319.67 198.14M319.67 198.14L313.58 200.09M313.58 200.09L307.62 202.4M307.62 202.4L301.82 205.08M301.82 205.08L202.26 5.96"
fill="none" stroke="red" stroke-width="0.5"/>
<path d="M560.13 65.6L560.32 62.83M560.32 62.83L560.9 60.12M560.9 60.12L561.85 57.51M561.85 57.51L563.15 55.07M563.15 55.07L564.78 52.82M564.78 52.82L566.71 50.83M566.71 50.83L568.89 49.12M568.89 49.12L571.3 47.73M571.3 47.73L573.87 46.69M573.87 46.69L576.56 46.02M576.56 46.02L579.32 45.73M579.32 45.73L582.09 45.83M582.09 45.83L584.82 46.31M584.82 46.31L587.46 47.17M587.46 47.17L589.95 48.38M589.95 48.38L592.25 49.93M592.25 49.93L594.31 51.79M594.31 51.79L596.1 53.91M596.1 53.91L597.57 56.27M597.57 56.27L598.69 58.8M598.69 58.8L599.46 61.47M599.46 61.47L599.85 64.21M599.85 64.21L599.85 66.99M599.85 66.99L599.46 69.73M599.46 69.73L598.69 72.4M598.69 72.4L597.57 74.93M597.57 74.93L596.1 77.29M596.1 77.29L594.31 79.41M594.31 79.41L592.25 81.27M592.25 81.27L589.95 82.82M589.95 82.82L587.46 84.04M587.46 84.04L584.82 84.89M584.82 84.89L582.09 85.37M582.09 85.37L579.32 85.47M579.32 85.47L576.56 85.18M576.56 85.18L573.87 84.51M573.87 84.51L571.3 83.47M571.3 83.47L568.89 82.08M568.89 82.08L566.71 80.38M566.71 80.38L564.78 78.38M564.78 78.38L563.15 76.14M563.15 76.14L561.85 73.69M561.85 73.69L560.9 71.08M560.9 71.08L560.32 68.37M560.32 68.37L560.13 65.6"
fill="none" stroke="yellow" stroke-width="0.5"/>
<path d="M96.22 65.6L96.42 62.83M96.42 62.83L96.99 60.12M96.99 60.12L97.94 57.51M97.94 57.51L99.24 55.07M99.24 55.07L100.87 52.82M100.87 52.82L102.8 50.83M102.8 50.83L104.99 49.12M104.99 49.12L107.39 47.73M107.39 47.73L109.96 46.69M109.96 46.69L112.65 46.02M112.65 46.02L115.41 45.73M115.41 45.73L118.18 45.83M118.18 45.83L120.91 46.31M120.91 46.31L123.55 47.17M123.55 47.17L126.04 48.38M126.04 48.38L128.34 49.93M128.34 49.93L130.41 51.79M130.41 51.79L132.19 53.91M132.19 53.91L133.66 56.27M133.66 56.27L134.79 58.8M134.79 58.8L135.55 61.47M135.55 61.47L135.94 64.21M135.94 64.21L135.94 66.99M135.94 66.99L135.55 69.73M135.55 69.73L134.79 72.4M134.79 72.4L133.66 74.93M133.66 74.93L132.19 77.29M132.19 77.29L130.41 79.41M130.41 79.41L128.34 81.27M128.34 81.27L126.04 82.82M126.04 82.82L123.55 84.04M123.55 84.04L120.91 84.89M120.91 84.89L118.18 85.37M118.18 85.37L115.41 85.47M115.41 85.47L112.65 85.18M112.65 85.18L109.96 84.51M109.96 84.51L107.39 83.47M107.39 83.47L104.99 82.08M104.99 82.08L102.8 80.38M102.8 80.38L100.87 78.38M100.87 78.38L99.24 76.14M99.24 76.14L97.94 73.69M97.94 73.69L96.99 71.08M96.99 71.08L96.42 68.37M96.42 68.37L96.22 65.6"
fill="none" stroke="yellow" stroke-width="0.5"/>
<path d="M560.13 529.51L560.32 526.74M560.32 526.74L560.9 524.03M560.9 524.03L561.85 521.42M561.85 521.42L563.15 518.97M563.15 518.97L564.78 516.73M564.78 516.73L566.71 514.73M566.71 514.73L568.89 513.03M568.89 513.03L571.3 511.64M571.3 511.64L573.87 510.6M573.87 510.6L576.56 509.93M576.56 509.93L579.32 509.64M579.32 509.64L582.09 509.74M582.09 509.74L584.82 510.22M584.82 510.22L587.46 511.07M587.46 511.07L589.95 512.29M589.95 512.29L592.25 513.84M592.25 513.84L594.31 515.7M594.31 515.7L596.1 517.82M596.1 517.82L597.57 520.17M597.57 520.17L598.69 522.71M598.69 522.71L599.46 525.37M599.46 525.37L599.85 528.12M599.85 528.12L599.85 530.9M599.85 530.9L599.46 533.64M599.46 533.64L598.69 536.31M598.69 536.31L597.57 538.84M597.57 538.84L596.1 541.19M596.1 541.19L594.31 543.32M594.31 543.32L592.25 545.18M592.25 545.18L589.95 546.73M589.95 546.73L587.46 547.94M587.46 547.94L584.82 548.8M584.82 548.8L582.09 549.28M582.09 549.28L579.32 549.38M579.32 549.38L576.56 549.09M576.56 549.09L573.87 548.42M573.87 548.42L571.3 547.38M571.3 547.38L568.89 545.99M568.89 545.99L566.71 544.28M566.71 544.28L564.78 542.29M564.78 542.29L563.15 540.04M563.15 540.04L561.85 537.6M561.85 537.6L560.9 534.99M560.9 534.99L560.32 532.28M560.32 532.28L560.13 529.51"
fill="none" stroke="yellow" stroke-width="0.5"/>
<path d="M96.22 529.51L96.42 526.74M96.42 526.74L96.99 524.03M96.99 524.03L97.94 521.42M97.94 521.42L99.24 518.97M99.24 518.97L100.87 516.73M100.87 516.73L102.8 514.73M102.8 514.73L104.99 513.03M104.99 513.03L107.39 511.64M107.39 511.64L109.96 510.6M109.96 510.6L112.65 509.93M112.65 509.93L115.41 509.64M115.41 509.64L118.18 509.74M118.18 509.74L120.91 510.22M120.91 510.22L123.55 511.07M123.55 511.07L126.04 512.29M126.04 512.29L128.34 513.84M128.34 513.84L130.41 515.7M130.41 515.7L132.19 517.82M132.19 517.82L133.66 520.17M133.66 520.17L134.79 522.71M134.79 522.71L135.55 525.37M135.55 525.37L135.94 528.12M135.94 528.12L135.94 530.9M135.94 530.9L135.55 533.64M135.55 533.64L134.79 536.31M134.79 536.31L133.66 538.84M133.66 538.84L132.19 541.19M132.19 541.19L130.41 543.32M130.41 543.32L128.34 545.18M128.34 545.18L126.04 546.73M126.04 546.73L123.55 547.94M123.55 547.94L120.91 548.8M120.91 548.8L118.18 549.28M118.18 549.28L115.41 549.38M115.41 549.38L112.65 549.09M112.65 549.09L109.96 548.42M109.96 548.42L107.39 547.38M107.39 547.38L104.99 545.99M104.99 545.99L102.8 544.28M102.8 544.28L100.87 542.29M100.87 542.29L99.24 540.04M99.24 540.04L97.94 537.6M97.94 537.6L96.99 534.99M96.99 534.99L96.42 532.28M96.42 532.28L96.22 529.51"
fill="none" stroke="yellow" stroke-width="0.5"/>
<path d="M440.53 251.32L394.29 205.08"
fill="none" stroke="lime" stroke-width="0.5"/>
<path d="M301.82 205.08L255.59 251.32"
fill="none" stroke="lime" stroke-width="0.5"/>
<path d="M301.82 390.03L255.59 343.79"
fill="none" stroke="lime" stroke-width="0.5"/>
<path d="M440.53 343.79L394.29 390.03"
fill="none" stroke="lime" stroke-width="0.5"/>
<path d="M580.01 85.48L580.01 181.58"
fill="none" stroke="yellow" stroke-width="0.5"/>
<path d="M135.99 65.6L232.08 65.6"
fill="none" stroke="yellow" stroke-width="0.5"/>
<path d="M116.1 509.63L116.1 413.53"
fill="none" stroke="yellow" stroke-width="0.5"/>
<path d="M560.13 529.51L464.03 529.51"
fill="none" stroke="yellow" stroke-width="0.5"/>
<path d="M439.09 224.02L421.59 206.52"
fill="none" stroke="yellow" stroke-width="0.5"/>
<path d="M274.52 206.52L257.02 224.02"
fill="none" stroke="yellow" stroke-width="0.5"/>
<path d="M274.52 388.59L257.02 371.09"
fill="none" stroke="yellow" stroke-width="0.5"/>
<path d="M439.09 371.09L421.59 388.59"
fill="none" stroke="yellow" stroke-width="0.5"/>
<path d="M420.23 205.96L420.42 205.45M420.42 205.45L420.89 205.17M420.89 205.17L421.43 205.27M421.43 205.27L421.78 205.69M421.78 205.69L421.78 206.23M421.78 206.23L421.43 206.65M421.43 206.65L420.89 206.74M420.89 206.74L420.42 206.47M420.42 206.47L420.23 205.96"
fill="none" stroke="yellow" stroke-width="0.5"/>
<path d="M438.86 224.58L439.05 224.07M439.05 224.07L439.52 223.8M439.52 223.8L440.05 223.9M440.05 223.9L440.4 224.31M440.4 224.31L440.4 224.86M440.4 224.86L440.05 225.27M440.05 225.27L439.52 225.37M439.52 225.37L439.05 225.1M439.05 225.1L438.86 224.58"
fill="none" stroke="yellow" stroke-width="0.5"/>
<path d="M274.29 205.96L274.48 205.45M274.48 205.45L274.95 205.17M274.95 205.17L275.48 205.27M275.48 205.27L275.83 205.69M275.83 205.69L275.83 206.23M275.83 206.23L275.48 206.65M275.48 206.65L274.95 206.74M274.95 206.74L274.48 206.47M274.48 206.47L274.29 205.96"
fill="none" stroke="yellow" stroke-width="0.5"/>
<path d="M255.66 224.58L255.85 224.07M255.85 224.07L256.32 223.8M256.32 223.8L256.86 223.9M256.86 223.9L257.21 224.31M257.21 224.31L257.21 224.86M257.21 224.86L256.86 225.27M256.86 225.27L256.32 225.37M256.32 225.37L255.85 225.1M255.85 225.1L255.66 224.58"
fill="none" stroke="yellow" stroke-width="0.5"/>
<path d="M255.66 370.53L255.85 370.01M255.85 370.01L256.32 369.74M256.32 369.74L256.86 369.84M256.86 369.84L257.21 370.25M257.21 370.25L257.21 370.8M257.21 370.8L256.86 371.21M256.86 371.21L256.32 371.31M256.32 371.31L255.85 371.04M255.85 371.04L255.66 370.53"
fill="none" stroke="yellow" stroke-width="0.5"/>
<path d="M274.29 389.15L274.48 388.64M274.48 388.64L274.95 388.37M274.95 388.37L275.48 388.46M275.48 388.46L275.83 388.88M275.83 388.88L275.83 389.42M275.83 389.42L275.48 389.84M275.48 389.84L274.95 389.94M274.95 389.94L274.48 389.66M274.48 389.66L274.29 389.15"
fill="none" stroke="yellow" stroke-width="0.5"/>
<path d="M438.86 370.53L439.05 370.01M439.05 370.01L439.52 369.74M439.52 369.74L440.05 369.84M440.05 369.84L440.4 370.25M440.4 370.25L440.4 370.8M440.4 370.8L440.05 371.21M440.05 371.21L439.52 371.31M439.52 371.31L439.05 371.04M439.05 371.04L438.86 370.53"
fill="none" stroke="yellow" stroke-width="0.5"/>
<path d="M420.23 389.15L420.42 388.64M420.42 388.64L420.89 388.37M420.89 388.37L421.43 388.46M421.43 388.46L421.78 388.88M421.78 388.88L421.78 389.42M421.78 389.42L421.43 389.84M421.43 389.84L420.89 389.94M420.89 389.94L420.42 389.66M420.42 389.66L420.23 389.15"
fill="none" stroke="yellow" stroke-width="0.5"/>
<path d="M757.64 310.53L757.64 284.58"
fill="none" stroke="lime" stroke-width="0.5"/>
<path d="M652.07 179.01L626.12 179.01"
fill="none" stroke="lime" stroke-width="0.5"/>
<path d="M520.55 310.53L520.55 284.58"
fill="none" stroke="lime" stroke-width="0.5"/>
<path d="M652.07 416.1L626.12 416.1"
fill="none" stroke="lime" stroke-width="0.5"/>
<path d="M520.55 280.61L494.05 297.55M494.05 297.55L520.55 314.5M520.55 314.5L520.55 310.53M520.55 310.53L527.18 310.53M527.18 310.53L527.18 310.53M527.18 310.53L528.13 317.02M528.13 317.02L529.45 323.45M529.45 323.45L531.14 329.79M531.14 329.79L533.2 336.02M533.2 336.02L535.62 342.12M535.62 342.12L538.39 348.07M538.39 348.07L541.51 353.85M541.51 353.85L544.95 359.44M544.95 359.44L548.71 364.81M548.71 364.81L552.78 369.96M552.78 369.96L557.14 374.87M557.14 374.87L561.79 379.51M561.79 379.51L566.69 383.87M566.69 383.87L571.84 387.94M571.84 387.94L577.21 391.7M577.21 391.7L582.8 395.15M582.8 395.15L588.58 398.26M588.58 398.26L594.53 401.03M594.53 401.03L600.63 403.45M600.63 403.45L606.86 405.51M606.86 405.51L613.2 407.2M613.2 407.2L619.63 408.52M619.63 408.52L626.12 409.47M626.12 409.47L626.12 416.1M626.12 416.1L622.15 416.1M622.15 416.1L639.1 442.61M639.1 442.61L656.04 416.1M656.04 416.1L652.07 416.1M652.07 416.1L652.07 409.47M652.07 409.47L652.07 409.47M652.07 409.47L658.56 408.52M658.56 408.52L664.99 407.2M664.99 407.2L671.33 405.51M671.33 405.51L677.56 403.45M677.56 403.45L683.66 401.03M683.66 401.03L689.61 398.26M689.61 398.26L695.39 395.15M695.39 395.15L700.98 391.7M700.98 391.7L706.36 387.94M706.36 387.94L711.5 383.87M711.5 383.87L716.41 379.51M716.41 379.51L721.05 374.87M721.05 374.87L725.41 369.96M725.41 369.96L729.48 364.81M729.48 364.81L733.24 359.44M733.24 359.44L736.69 353.85M736.69 353.85L739.8 348.07M739.8 348.07L742.57 342.12M742.57 342.12L744.99 336.02M744.99 336.02L747.05 329.79M747.05 329.79L748.74 323.45M748.74 323.45L750.06 317.02M750.06 317.02L751.01 310.53M751.01 310.53L757.64 310.53M757.64 310.53L757.64 314.5M757.64 314.5L784.15 297.55M784.15 297.55L757.64 280.61M757.64 280.61L757.64 284.58M757.64 284.58L751.01 284.58M751.01 284.58L751.01 284.58M751.01 284.58L750.06 278.09M750.06 278.09L748.74 271.66M748.74 271.66L747.05 265.32M747.05 265.32L744.99 259.09M744.99 259.09L742.57 252.99M742.57 252.99L739.8 247.04M739.8 247.04L736.69 241.26M736.69 241.26L733.24 235.67M733.24 235.67L729.48 230.3M729.48 230.3L725.41 225.15M725.41 225.15L721.05 220.24M721.05 220.24L716.41 215.6M716.41 215.6L711.5 211.24M711.5 211.24L706.36 207.17M706.36 207.17L700.98 203.41M700.98 203.41L695.39 199.96M695.39 199.96L689.61 196.85M689.61 196.85L683.66 194.08M683.66 194.08L677.56 191.66M677.56 191.66L671.33 189.6M671.33 189.6L664.99 187.91M664.99 187.91L658.56 186.59M658.56 186.59L652.07 185.64M652.07 185.64L652.07 179.01M652.07 179.01L656.04 179.01M656.04 179.01L639.1 152.5M639.1 152.5L622.15 179.01M622.15 179.01L626.12 179.01M626.12 179.01L626.12 185.64M626.12 185.64L626.12 185.64M626.12 185.64L619.63 186.59M619.63 186.59L613.2 187.91M613.2 187.91L606.86 189.6M606.86 189.6L600.63 191.66M600.63 191.66L594.53 194.08M594.53 194.08L588.58 196.85M588.58 196.85L582.8 199.96M582.8 199.96L577.21 203.41M577.21 203.41L571.84 207.17M571.84 207.17L566.69 211.24M566.69 211.24L561.79 215.6M561.79 215.6L557.14 220.24M557.14 220.24L552.78 225.15M552.78 225.15L548.71 230.3M548.71 230.3L544.95 235.67M544.95 235.67L541.51 241.26M541.51 241.26L538.39 247.04M538.39 247.04L535.62 252.99M535.62 252.99L533.2 259.09M533.2 259.09L531.14 265.32M531.14 265.32L529.45 271.66M529.45 271.66L528.13 278.09M528.13 278.09L527.18 284.58M527.18 284.58L520.55 284.58M520.55 284.58L520.55 280.61"
fill="none" stroke="red" stroke-width="0.5"/>
<path d="M559.57 297.55L559.77 291.95M559.77 291.95L560.36 286.36M560.36 286.36L561.35 280.84M561.35 280.84L562.72 275.39M562.72 275.39L564.47 270.06M564.47 270.06L566.6 264.87M566.6 264.87L569.08 259.83M569.08 259.83L571.92 254.99M571.92 254.99L575.09 250.36M575.09 250.36L578.58 245.96M578.58 245.96L582.37 241.82M582.37 241.82L586.44 237.96M586.44 237.96L590.78 234.39M590.78 234.39L595.35 231.14M595.35 231.14L600.15 228.22M600.15 228.22L605.13 225.64M605.13 225.64L610.29 223.43M610.29 223.43L615.59 221.58M615.59 221.58L621.01 220.11M621.01 220.11L626.52 219.03M626.52 219.03L632.09 218.34M632.09 218.34L637.69 218.04M637.69 218.04L643.3 218.14M643.3 218.14L648.9 218.63M648.9 218.63L654.44 219.52M654.44 219.52L659.91 220.8M659.91 220.8L665.27 222.46M665.27 222.46L670.5 224.49M670.5 224.49L675.58 226.89M675.58 226.89L680.47 229.64M680.47 229.64L685.16 232.72M685.16 232.72L689.62 236.14M689.62 236.14L693.82 239.85M693.82 239.85L697.76 243.86M697.76 243.86L701.4 248.13M701.4 248.13L704.73 252.65M704.73 252.65L707.73 257.39M707.73 257.39L710.4 262.33M710.4 262.33L712.7 267.45M712.7 267.45L714.64 272.71M714.64 272.71L716.21 278.1M716.21 278.1L717.39 283.59M717.39 283.59L718.18 289.15M718.18 289.15L718.57 294.75M718.57 294.75L718.57 300.36M718.57 300.36L718.18 305.96M718.18 305.96L717.39 311.52M717.39 311.52L716.21 317.01M716.21 317.01L714.64 322.4M714.64 322.4L712.7 327.66M712.7 327.66L710.4 332.78M710.4 332.78L707.73 337.72M707.73 337.72L704.73 342.46M704.73 342.46L701.4 346.98M701.4 346.98L697.76 351.25M697.76 351.25L693.82 355.26M693.82 355.26L689.62 358.97M689.62 358.97L685.16 362.38M685.16 362.38L680.47 365.47M680.47 365.47L675.58 368.22M675.58 368.22L670.5 370.62M670.5 370.62L665.27 372.65M665.27 372.65L659.91 374.31M659.91 374.31L654.44 375.59M654.44 375.59L648.9 376.48M648.9 376.48L643.3 376.97M643.3 376.97L637.69 377.07M637.69 377.07L632.09 376.77M632.09 376.77L626.52 376.08M626.52 376.08L621.01 375M621.01 375L615.59 373.53M615.59 373.53L610.29 371.68M610.29 371.68L605.13 369.47M605.13 369.47L600.15 366.89M600.15 366.89L595.35 363.97M595.35 363.97L590.78 360.72M590.78 360.72L586.44 357.15M586.44 357.15L582.37 353.29M582.37 353.29L578.58 349.15M578.58 349.15L575.09 344.75M575.09 344.75L571.92 340.12M571.92 340.12L569.08 335.28M569.08 335.28L566.6 330.24M566.6 330.24L564.47 325.05M564.47 325.05L562.72 319.72M562.72 319.72L561.35 314.27M561.35 314.27L560.36 308.75M560.36 308.75L559.77 303.16M559.77 303.16L559.57 297.55"
fill="none" stroke="cyan" stroke-width="0.5"/>
<path d="M572.82 297.55L573.02 292.42M573.02 292.42L573.62 287.31M573.62 287.31L574.61 282.27M574.61 282.27L575.99 277.32M575.99 277.32L577.75 272.49M577.75 272.49L579.87 267.81M579.87 267.81L582.36 263.31M582.36 263.31L585.18 259.02M585.18 259.02L588.33 254.96M588.33 254.96L591.78 251.15M591.78 251.15L595.52 247.62M595.52 247.62L599.52 244.4M599.52 244.4L603.76 241.49M603.76 241.49L608.21 238.92M608.21 238.92L612.85 236.7M612.85 236.7L617.64 234.85M617.64 234.85L622.57 233.38M622.57 233.38L627.59 232.29M627.59 232.29L632.68 231.59M632.68 231.59L637.81 231.29M637.81 231.29L642.95 231.39M642.95 231.39L648.06 231.89M648.06 231.89L653.13 232.78M653.13 232.78L658.1 234.07M658.1 234.07L662.97 235.73M662.97 235.73L667.69 237.77M667.69 237.77L672.23 240.16M672.23 240.16L676.58 242.9M676.58 242.9L680.7 245.97M680.7 245.97L684.58 249.35M684.58 249.35L688.17 253.02M688.17 253.02L691.48 256.96M691.48 256.96L694.47 261.14M694.47 261.14L697.12 265.54M697.12 265.54L699.43 270.13M699.43 270.13L701.37 274.89M701.37 274.89L702.94 279.78M702.94 279.78L704.13 284.78M704.13 284.78L704.92 289.86M704.92 289.86L705.32 294.99M705.32 294.99L705.32 300.12M705.32 300.12L704.92 305.25M704.92 305.25L704.13 310.33M704.13 310.33L702.94 315.33M702.94 315.33L701.37 320.22M701.37 320.22L699.43 324.98M699.43 324.98L697.12 329.57M697.12 329.57L694.47 333.97M694.47 333.97L691.48 338.15M691.48 338.15L688.17 342.09M688.17 342.09L684.58 345.76M684.58 345.76L680.7 349.14M680.7 349.14L676.58 352.21M676.58 352.21L672.23 354.95M672.23 354.95L667.69 357.34M667.69 357.34L662.97 359.38M662.97 359.38L658.1 361.04M658.1 361.04L653.13 362.33M653.13 362.33L648.06 363.22M648.06 363.22L642.95 363.72M642.95 363.72L637.81 363.81M637.81 363.81L632.68 363.52M632.68 363.52L627.59 362.82M627.59 362.82L622.57 361.73M622.57 361.73L617.64 360.26M617.64 360.26L612.85 358.41M612.85 358.41L608.21 356.19M608.21 356.19L603.76 353.62M603.76 353.62L599.52 350.71M599.52 350.71L595.52 347.49M595.52 347.49L591.78 343.96M591.78 343.96L588.33 340.15M588.33 340.15L585.18 336.09M585.18 336.09L582.36 331.8M582.36 331.8L579.87 327.3M579.87 327.3L577.75 322.62M577.75 322.62L575.99 317.79M575.99 317.79L574.61 312.84M574.61 312.84L573.62 307.8M573.62 307.8L573.02 302.69M573.02 302.69L572.82 297.55"
fill="none" stroke="cyan" stroke-width="0.5"/>
<path d="M586.08 297.55L586.27 293M586.27 293L586.86 288.47M586.86 288.47L587.84 284.02M587.84 284.02L589.19 279.66M589.19 279.66L590.91 275.44M590.91 275.44L592.99 271.38M592.99 271.38L595.41 267.51M595.41 267.51L598.16 263.87M598.16 263.87L601.21 260.47M601.21 260.47L604.53 257.35M604.53 257.35L608.12 254.53M608.12 254.53L611.93 252.02M611.93 252.02L615.95 249.86M615.95 249.86L620.13 248.04M620.13 248.04L624.46 246.6M624.46 246.6L628.89 245.53M628.89 245.53L633.4 244.84M633.4 244.84L637.96 244.55M637.96 244.55L642.52 244.65M642.52 244.65L647.05 245.14M647.05 245.14L651.53 246.02M651.53 246.02L655.91 247.27M655.91 247.27L660.17 248.91M660.17 248.91L664.28 250.9M664.28 250.9L668.19 253.24M668.19 253.24L671.9 255.9M671.9 255.9L675.36 258.88M675.36 258.88L678.55 262.14M678.55 262.14L681.45 265.66M681.45 265.66L684.03 269.42M684.03 269.42L686.28 273.38M686.28 273.38L688.19 277.53M688.19 277.53L689.73 281.82M689.73 281.82L690.89 286.23M690.89 286.23L691.67 290.73M691.67 290.73L692.07 295.27M692.07 295.27L692.07 299.84M692.07 299.84L691.67 304.38M691.67 304.38L690.89 308.88M690.89 308.88L689.73 313.29M689.73 313.29L688.19 317.58M688.19 317.58L686.28 321.73M686.28 321.73L684.03 325.69M684.03 325.69L681.45 329.45M681.45 329.45L678.55 332.97M678.55 332.97L675.36 336.23M675.36 336.23L671.9 339.21M671.9 339.21L668.19 341.87M668.19 341.87L664.28 344.21M664.28 344.21L660.17 346.2M660.17 346.2L655.91 347.84M655.91 347.84L651.53 349.09M651.53 349.09L647.05 349.97M647.05 349.97L642.52 350.46M642.52 350.46L637.96 350.56M637.96 350.56L633.4 350.27M633.4 350.27L628.89 349.58M628.89 349.58L624.46 348.51M624.46 348.51L620.13 347.06M620.13 347.06L615.95 345.25M615.95 345.25L611.93 343.08M611.93 343.08L608.12 340.58M608.12 340.58L604.53 337.76M604.53 337.76L601.21 334.64M601.21 334.64L598.16 331.24M598.16 331.24L595.41 327.6M595.41 327.6L592.99 323.73M592.99 323.73L590.91 319.67M590.91 319.67L589.19 315.45M589.19 315.45L587.84 311.09M587.84 311.09L586.86 306.64M586.86 306.64L586.27 302.11M586.27 302.11L586.08 297.55"
fill="none" stroke="cyan" stroke-width="0.5"/>
<path d="M599.33 297.55L599.53 293.6M599.53 293.6L600.12 289.68M600.12 289.68L601.1 285.83M601.1 285.83L602.46 282.11M602.46 282.11L604.17 278.54M604.17 278.54L606.24 275.16M606.24 275.16L608.64 272M608.64 272L611.33 269.09M611.33 269.09L614.3 266.47M614.3 266.47L617.52 264.15M617.52 264.15L620.96 262.17M620.96 262.17L624.57 260.54M624.57 260.54L628.33 259.28M628.33 259.28L632.19 258.4M632.19 258.4L636.12 257.9M636.12 257.9L640.09 257.8M640.09 257.8L644.04 258.1M644.04 258.1L647.94 258.79M647.94 258.79L651.76 259.86M651.76 259.86L655.45 261.31M655.45 261.31L658.98 263.12M658.98 263.12L662.31 265.27M662.31 265.27L665.41 267.74M665.41 267.74L668.24 270.51M668.24 270.51L670.79 273.55M670.79 273.55L673.03 276.82M673.03 276.82L674.92 280.3M674.92 280.3L676.46 283.95M676.46 283.95L677.63 287.74M677.63 287.74L678.42 291.63M678.42 291.63L678.81 295.57M678.81 295.57L678.81 299.54M678.81 299.54L678.42 303.48M678.42 303.48L677.63 307.37M677.63 307.37L676.46 311.15M676.46 311.15L674.92 314.81M674.92 314.81L673.03 318.29M673.03 318.29L670.79 321.56M670.79 321.56L668.24 324.6M668.24 324.6L665.41 327.37M665.41 327.37L662.31 329.84M662.31 329.84L658.98 331.99M658.98 331.99L655.45 333.8M655.45 333.8L651.76 335.25M651.76 335.25L647.94 336.32M647.94 336.32L644.04 337.01M644.04 337.01L640.09 337.31M640.09 337.31L636.12 337.21M636.12 337.21L632.19 336.71M632.19 336.71L628.33 335.83M628.33 335.83L624.57 334.57M624.57 334.57L620.96 332.94M620.96 332.94L617.52 330.96M617.52 330.96L614.3 328.64M614.3 328.64L611.33 326.02M611.33 326.02L608.64 323.11M608.64 323.11L606.24 319.95M606.24 319.95L604.17 316.57M604.17 316.57L602.46 313M602.46 313L601.1 309.28M601.1 309.28L600.12 305.43M600.12 305.43L599.53 301.51M599.53 301.51L599.33 297.55"
fill="none" stroke="cyan" stroke-width="0.5"/>
<path d="M612.59 297.55L612.78 294.36M612.78 294.36L613.36 291.21M613.36 291.21L614.31 288.15M614.31 288.15L615.62 285.24M615.62 285.24L617.28 282.5M617.28 282.5L619.25 279.98M619.25 279.98L621.52 277.71M621.52 277.71L624.04 275.74M624.04 275.74L626.78 274.08M626.78 274.08L629.7 272.77M629.7 272.77L632.75 271.82M632.75 271.82L635.9 271.24M635.9 271.24L639.1 271.05M639.1 271.05L642.29 271.24M642.29 271.24L645.44 271.82M645.44 271.82L648.5 272.77M648.5 272.77L651.42 274.08M651.42 274.08L654.15 275.74M654.15 275.74L656.67 277.71M656.67 277.71L658.94 279.98M658.94 279.98L660.91 282.5M660.91 282.5L662.57 285.24M662.57 285.24L663.88 288.15M663.88 288.15L664.83 291.21M664.83 291.21L665.41 294.36M665.41 294.36L665.61 297.55M665.61 297.55L665.41 300.75M665.41 300.75L664.83 303.9M664.83 303.9L663.88 306.96M663.88 306.96L662.57 309.87M662.57 309.87L660.91 312.61M660.91 312.61L658.94 315.13M658.94 315.13L656.67 317.4M656.67 317.4L654.15 319.37M654.15 319.37L651.42 321.03M651.42 321.03L648.5 322.34M648.5 322.34L645.44 323.29M645.44 323.29L642.29 323.87M642.29 323.87L639.1 324.06M639.1 324.06L635.9 323.87M635.9 323.87L632.75 323.29M632.75 323.29L629.7 322.34M629.7 322.34L626.78 321.03M626.78 321.03L624.04 319.37M624.04 319.37L621.52 317.4M621.52 317.4L619.25 315.13M619.25 315.13L617.28 312.61M617.28 312.61L615.62 309.87M615.62 309.87L614.31 306.96M614.31 306.96L613.36 303.9M613.36 303.9L612.78 300.75M612.78 300.75L612.59 297.55"
fill="none" stroke="cyan" stroke-width="0.5"/>
<path d="M625.84 297.55L626.03 295.31M626.03 295.31L626.6 293.14M626.6 293.14L627.52 291.09M627.52 291.09L628.78 289.23M628.78 289.23L630.34 287.61M630.34 287.61L632.15 286.27M632.15 286.27L634.15 285.26M634.15 285.26L636.3 284.6M636.3 284.6L638.53 284.31M638.53 284.31L640.78 284.41M640.78 284.41L642.98 284.88M642.98 284.88L645.06 285.72M645.06 285.72L646.98 286.9M646.98 286.9L648.67 288.38M648.67 288.38L650.08 290.13M650.08 290.13L651.17 292.1M651.17 292.1L651.92 294.21M651.92 294.21L652.3 296.43M652.3 296.43L652.3 298.68M652.3 298.68L651.92 300.89M651.92 300.89L651.17 303.01M651.17 303.01L650.08 304.98M650.08 304.98L648.67 306.73M648.67 306.73L646.98 308.21M646.98 308.21L645.06 309.39M645.06 309.39L642.98 310.23M642.98 310.23L640.78 310.7M640.78 310.7L638.53 310.8M638.53 310.8L636.3 310.51M636.3 310.51L634.15 309.85M634.15 309.85L632.15 308.84M632.15 308.84L630.34 307.5M630.34 307.5L628.78 305.88M628.78 305.88L627.52 304.02M627.52 304.02L626.6 301.97M626.6 301.97L626.03 299.79M626.03 299.79L625.84 297.55"
fill="none" stroke="cyan" stroke-width="0.5"/>
<path d="M1.64 593.28L1.64 2.04 838.91 2.04 838.91 593.28 1.64 593.28"
fill="none" stroke="lime" stroke-width="0.5"/>
</svg>
